# Time	[SpaK]	[SpaR]	
0	0	0	
10	0.589893	1.29789	
20	2.30569	5.07303	
30	5.07012	11.1554	
40	8.81043	19.3849	
50	13.4581	29.6109	
60	18.9488	41.6914	
70	25.2216	55.4931	
80	32.2196	70.8903	
90	39.8891	87.7647	
100	48.1794	106.005	
110	57.043	125.507	
120	66.4352	146.172	
130	76.314	167.908	
140	86.6398	190.627	
150	97.3755	214.247	
160	108.486	238.693	
170	119.939	263.892	
180	131.703	289.775	
190	143.749	316.28	
200	156.051	343.346	
210	168.582	370.917	
220	181.319	398.941	
230	194.239	427.368	
240	207.321	456.151	
250	220.545	485.248	
260	233.894	514.618	
270	247.349	544.222	
280	260.894	574.024	
290	274.514	603.992	
300	288.195	634.093	
310	301.924	664.3	
320	315.688	694.583	
330	329.475	724.918	
340	343.275	755.281	
350	357.078	785.649	
360	370.873	816.002	
370	384.653	846.321	
380	398.408	876.586	
390	412.133	906.782	
400	425.818	936.893	
410	439.458	966.905	
420	453.047	996.803	
430	466.579	1026.58	
440	480.048	1056.21	
450	493.451	1085.7	
460	506.782	1115.03	
470	520.037	1144.2	
480	533.212	1173.18	
490	546.305	1201.99	
500	559.312	1230.61	
510	572.229	1259.03	
520	585.055	1287.25	
530	597.786	1315.26	
540	610.421	1343.06	
550	622.958	1370.64	
560	635.395	1398.01	
570	647.73	1425.15	
580	659.962	1452.06	
590	672.089	1478.74	
600	684.111	1505.2	
610	696.027	1531.41	
620	707.835	1557.39	
630	719.536	1583.14	
640	731.128	1608.64	
650	742.611	1633.91	
660	753.985	1658.93	
670	765.249	1683.72	
680	776.403	1708.26	
690	787.448	1732.56	
700	798.383	1756.62	
710	809.208	1780.44	
720	819.924	1804.01	
730	830.53	1827.35	
740	841.027	1850.44	
750	851.415	1873.3	
760	861.695	1895.92	
770	871.867	1918.3	
780	881.931	1940.44	
790	891.889	1962.35	
800	901.739	1984.03	
810	911.484	2005.47	
820	921.124	2026.68	
830	930.659	2047.65	
840	940.09	2068.4	
850	949.418	2088.93	
860	958.643	2109.23	
870	967.766	2129.3	
880	976.788	2149.15	
890	985.71	2168.78	
900	994.532	2188.19	
910	1003.26	2207.38	
920	1011.88	2226.36	
930	1020.41	2245.13	
940	1028.84	2263.68	
950	1037.18	2282.02	
960	1045.42	2300.16	
970	1053.57	2318.08	
980	1061.63	2335.81	
990	1069.59	2353.33	
1000	1077.46	2370.65	
1010	1085.24	2387.77	
1020	1092.94	2404.7	
1030	1100.54	2421.43	
1040	1108.06	2437.97	
1050	1115.49	2454.32	
1060	1122.83	2470.47	
1070	1130.09	2486.45	
1080	1137.26	2502.23	
1090	1144.36	2517.83	
1100	1151.36	2533.26	
1110	1158.29	2548.5	
1120	1165.14	2563.56	
1130	1171.91	2578.45	
1140	1178.59	2593.16	
1150	1185.2	2607.71	
1160	1191.74	2622.08	
1170	1198.19	2636.28	
1180	1204.57	2650.32	
1190	1210.88	2664.2	
1200	1217.11	2677.91	
1210	1223.27	2691.46	
1220	1229.35	2704.85	
1230	1235.37	2718.08	
1240	1241.31	2731.16	
1250	1247.18	2744.08	
1260	1252.99	2756.85	
1270	1258.72	2769.47	
1280	1264.39	2781.94	
1290	1269.99	2794.26	
1300	1275.53	2806.44	
1310	1281	2818.48	
1320	1286.4	2830.37	
1330	1291.74	2842.12	
1340	1297.02	2853.73	
1350	1302.24	2865.21	
1360	1307.39	2876.55	
1370	1312.48	2887.75	
1380	1317.52	2898.83	
1390	1322.49	2909.77	
1400	1327.4	2920.58	
1410	1332.26	2931.26	
1420	1337.06	2941.82	
1430	1341.8	2952.25	
1440	1346.48	2962.56	
1450	1351.11	2972.75	
1460	1355.69	2982.81	
1470	1360.21	2992.76	
1480	1364.67	3002.58	
1490	1369.09	3012.29	
1500	1373.45	3021.89	
1510	1377.76	3031.37	
1520	1382.02	3040.74	
1530	1386.22	3049.99	
1540	1390.38	3059.14	
1550	1394.49	3068.18	
1560	1398.55	3077.11	
1570	1402.56	3085.93	
1580	1406.52	3094.65	
1590	1410.44	3103.27	
1600	1414.31	3111.78	
1610	1418.13	3120.19	
1620	1421.91	3128.51	
1630	1425.64	3136.72	
1640	1429.33	3144.83	
1650	1432.97	3152.85	
1660	1436.57	3160.78	
1670	1440.13	3168.6	
1680	1443.65	3176.34	
1690	1447.12	3183.98	
1700	1450.55	3191.54	
1710	1453.94	3199	
1720	1457.3	3206.37	
1730	1460.61	3213.66	
1740	1463.88	3220.86	
1750	1467.11	3227.97	
1760	1470.31	3235	
1770	1473.46	3241.94	
1780	1476.58	3248.8	
1790	1479.66	3255.58	
1800	1482.71	3262.28	
1810	1485.72	3268.9	
1820	1488.69	3275.44	
1830	1491.63	3281.91	
1840	1494.53	3288.29	
1850	1497.4	3294.6	
1860	1500.23	3300.84	
1870	1503.03	3307	
1880	1505.8	3313.08	
1890	1508.53	3319.1	
1900	1511.23	3325.04	
1910	1513.9	3330.91	
1920	1516.54	3336.71	
1930	1519.14	3342.44	
1940	1521.72	3348.11	
1950	1524.26	3353.7	
1960	1526.77	3359.23	
1970	1529.26	3364.7	
1980	1531.71	3370.1	
1990	1534.13	3375.43	
2000	1536.53	3380.7	
2010	1538.9	3385.91	
2020	1541.23	3391.06	
2030	1543.55	3396.14	
2040	1545.83	3401.16	
2050	1548.08	3406.13	
2060	1550.31	3411.03	
2070	1552.52	3415.88	
2080	1554.69	3420.67	
2090	1556.84	3425.4	
2100	1558.97	3430.07	
2110	1561.07	3434.69	
2120	1563.14	3439.26	
2130	1565.19	3443.77	
2140	1567.22	3448.22	
2150	1569.22	3452.62	
2160	1571.19	3456.97	
2170	1573.15	3461.27	
2180	1575.08	3465.52	
2190	1576.99	3469.72	
2200	1578.87	3473.86	
2210	1580.73	3477.96	
2220	1582.57	3482.01	
2230	1584.39	3486.01	
2240	1586.19	3489.96	
2250	1587.96	3493.86	
2260	1589.71	3497.72	
2270	1591.45	3501.53	
2280	1593.16	3505.3	
2290	1594.85	3509.02	
2300	1596.52	3512.7	
2310	1598.17	3516.33	
2320	1599.81	3519.92	
2330	1601.42	3523.47	
2340	1603.01	3526.98	
2350	1604.59	3530.44	
2360	1606.14	3533.86	
2370	1607.68	3537.24	
2380	1609.2	3540.58	
2390	1610.7	3543.89	
2400	1612.18	3547.15	
2410	1613.64	3550.37	
2420	1615.09	3553.55	
2430	1616.52	3556.7	
2440	1617.93	3559.81	
2450	1619.33	3562.88	
2460	1620.71	3565.92	
2470	1622.07	3568.92	
2480	1623.42	3571.88	
2490	1624.75	3574.81	
2500	1626.06	3577.7	
2510	1627.36	3580.56	
2520	1628.65	3583.38	
2530	1629.92	3586.17	
2540	1631.17	3588.93	
2550	1632.41	3591.65	
2560	1633.63	3594.35	
2570	1634.84	3597.01	
2580	1636.03	3599.63	
2590	1637.21	3602.23	
2600	1638.38	3604.8	
2610	1639.53	3607.33	
2620	1640.67	3609.84	
2630	1641.8	3612.31	
2640	1642.91	3614.76	
2650	1644.01	3617.17	
2660	1645.09	3619.56	
2670	1646.16	3621.92	
2680	1647.22	3624.25	
2690	1648.27	3626.56	
2700	1649.3	3628.83	
2710	1650.33	3631.08	
2720	1651.34	3633.3	
2730	1652.33	3635.5	
2740	1653.32	3637.67	
2750	1654.29	3639.81	
2760	1655.26	3641.93	
2770	1656.21	3644.02	
2780	1657.15	3646.09	
2790	1658.07	3648.13	
2800	1658.99	3650.15	
2810	1659.9	3652.14	
2820	1660.79	3654.11	
2830	1661.68	3656.06	
2840	1662.55	3657.98	
2850	1663.42	3659.88	
2860	1664.27	3661.76	
2870	1665.11	3663.62	
2880	1665.95	3665.45	
2890	1666.77	3667.26	
2900	1667.58	3669.05	
2910	1668.39	3670.82	
2920	1669.18	3672.57	
2930	1669.97	3674.29	
2940	1670.74	3676	
2950	1671.51	3677.69	
2960	1672.27	3679.35	
2970	1673.01	3681	
2980	1673.75	3682.62	
2990	1674.48	3684.23	
3000	1675.2	3685.82	
3010	1675.92	3687.39	
3020	1676.62	3688.94	
3030	1677.32	3690.47	
3040	1678.01	3691.98	
3050	1678.69	3693.48	
3060	1679.36	3694.95	
3070	1680.02	3696.41	
3080	1680.68	3697.86	
3090	1681.32	3699.28	
3100	1681.96	3700.69	
3110	1682.6	3702.08	
3120	1683.22	3703.46	
3130	1683.84	3704.81	
3140	1684.45	3706.16	
3150	1685.05	3707.48	
3160	1685.65	3708.79	
3170	1686.23	3710.09	
3180	1686.82	3711.37	
3190	1687.39	3712.63	
3200	1687.96	3713.88	
3210	1688.52	3715.11	
3220	1689.07	3716.33	
3230	1689.62	3717.54	
3240	1690.16	3718.73	
3250	1690.7	3719.9	
3260	1691.22	3721.07	
3270	1691.75	3722.21	
3280	1692.26	3723.35	
3290	1692.77	3724.47	
3300	1693.27	3725.58	
3310	1693.77	3726.67	
3320	1694.26	3727.75	
3330	1694.75	3728.82	
3340	1695.23	3729.88	
3350	1695.7	3730.92	
3360	1696.17	3731.95	
3370	1696.63	3732.97	
3380	1697.09	3733.98	
3390	1697.54	3734.97	
3400	1697.99	3735.95	
3410	1698.43	3736.92	
3420	1698.87	3737.88	
3430	1699.3	3738.83	
3440	1699.72	3739.77	
3450	1700.14	3740.69	
3460	1700.56	3741.61	
3470	1700.97	3742.51	
3480	1701.38	3743.4	
3490	1701.78	3744.28	
3500	1702.17	3745.16	
3510	1702.56	3746.02	
3520	1702.95	3746.87	
3530	1703.33	3747.71	
3540	1703.71	3748.54	
3550	1704.08	3749.36	
3560	1704.45	3750.17	
3570	1704.82	3750.97	
3580	1705.18	3751.76	
3590	1705.53	3752.54	
3600	1705.88	3753.32	
3610	1706.23	3754.08	
3620	1706.57	3754.83	
3630	1706.91	3755.58	
3640	1707.25	3756.32	
3650	1707.58	3757.04	
3660	1707.9	3757.76	
3670	1708.23	3758.47	
3680	1708.55	3759.18	
3690	1708.86	3759.87	
3700	1709.17	3760.56	
3710	1709.48	3761.23	
3720	1709.78	3761.9	
3730	1710.08	3762.56	
3740	1710.38	3763.22	
3750	1710.68	3763.86	
3760	1710.97	3764.5	
3770	1711.25	3765.13	
3780	1711.53	3765.75	
3790	1711.81	3766.37	
3800	1712.09	3766.98	
3810	1712.36	3767.58	
3820	1712.63	3768.17	
3830	1712.9	3768.76	
3840	1713.16	3769.34	
3850	1713.42	3769.91	
3860	1713.68	3770.47	
3870	1713.93	3771.03	
3880	1714.19	3771.58	
3890	1714.43	3772.13	
3900	1714.68	3772.67	
3910	1714.92	3773.2	
3920	1715.16	3773.73	
3930	1715.4	3774.25	
3940	1715.63	3774.76	
3950	1715.86	3775.27	
3960	1716.09	3775.77	
3970	1716.31	3776.27	
3980	1716.54	3776.76	
3990	1716.76	3777.24	
4000	1716.97	3777.72	
4010	1717.19	3778.19	
4020	1717.4	3778.66	
4030	1717.61	3779.12	
4040	1717.82	3779.58	
4050	1718.02	3780.03	
4060	1718.22	3780.47	
4070	1718.42	3780.91	
4080	1718.62	3781.35	
4090	1718.82	3781.78	
4100	1719.01	3782.2	
4110	1719.2	3782.62	
4120	1719.39	3783.03	
4130	1719.57	3783.44	
4140	1719.76	3783.85	
4150	1719.94	3784.25	
4160	1720.12	3784.64	
4170	1720.3	3785.03	
4180	1720.47	3785.42	
4190	1720.64	3785.8	
4200	1720.82	3786.17	
4210	1720.98	3786.54	
4220	1721.15	3786.91	
4230	1721.32	3787.27	
4240	1721.48	3787.63	
4250	1721.64	3787.99	
4260	1721.8	3788.34	
4270	1721.96	3788.68	
4280	1722.11	3789.02	
4290	1722.27	3789.36	
4300	1722.42	3789.7	
4310	1722.57	3790.03	
4320	1722.71	3790.35	
4330	1722.86	3790.67	
4340	1723.01	3790.99	
4350	1723.15	3791.31	
4360	1723.29	3791.62	
4370	1723.43	3791.92	
4380	1723.57	3792.23	
4390	1723.7	3792.52	
4400	1723.84	3792.82	
4410	1723.97	3793.11	
4420	1724.1	3793.4	
4430	1724.23	3793.69	
4440	1724.36	3793.97	
4450	1724.49	3794.25	
4460	1724.61	3794.52	
4470	1724.73	3794.8	
4480	1724.86	3795.06	
4490	1724.98	3795.33	
4500	1725.1	3795.59	
4510	1725.21	3795.85	
4520	1725.33	3796.11	
4530	1725.45	3796.36	
4540	1725.56	3796.61	
4550	1725.67	3796.86	
4560	1725.78	3797.1	
4570	1725.89	3797.34	
4580	1726	3797.58	
4590	1726.11	3797.82	
4600	1726.21	3798.05	
4610	1726.32	3798.28	
4620	1726.42	3798.51	
4630	1726.52	3798.73	
4640	1726.62	3798.95	
4650	1726.72	3799.17	
4660	1726.82	3799.39	
4670	1726.92	3799.6	
4680	1727.02	3799.82	
4690	1727.11	3800.02	
4700	1727.2	3800.23	
4710	1727.3	3800.43	
4720	1727.39	3800.64	
4730	1727.48	3800.84	
4740	1727.57	3801.03	
4750	1727.66	3801.23	
4760	1727.74	3801.42	
4770	1727.83	3801.61	
4780	1727.92	3801.8	
4790	1728	3801.98	
4800	1728.08	3802.16	
4810	1728.17	3802.35	
4820	1728.25	3802.52	
4830	1728.33	3802.7	
4840	1728.41	3802.88	
4850	1728.49	3803.05	
4860	1728.56	3803.22	
4870	1728.64	3803.39	
4880	1728.71	3803.55	
4890	1728.79	3803.72	
4900	1728.86	3803.88	
4910	1728.94	3804.04	
4920	1729.01	3804.2	
4930	1729.08	3804.36	
4940	1729.15	3804.51	
4950	1729.22	3804.66	
4960	1729.29	3804.81	
4970	1729.36	3804.96	
4980	1729.42	3805.11	
4990	1729.49	3805.26	
5000	1729.55	3805.4	
5010	1729.62	3805.54	
5020	1729.68	3805.68	
5030	1729.75	3805.82	
5040	1729.81	3805.96	
5050	1729.87	3806.1	
5060	1729.93	3806.23	
5070	1729.99	3806.36	
5080	1730.05	3806.49	
5090	1730.11	3806.62	
5100	1730.17	3806.75	
5110	1730.23	3806.88	
5120	1730.28	3807	
5130	1730.34	3807.12	
5140	1730.39	3807.25	
5150	1730.45	3807.37	
5160	1730.5	3807.49	
5170	1730.56	3807.6	
5180	1730.61	3807.72	
5190	1730.66	3807.83	
5200	1730.71	3807.95	
5210	1730.76	3808.06	
5220	1730.81	3808.17	
5230	1730.86	3808.28	
5240	1730.91	3808.39	
5250	1730.96	3808.49	
5260	1731.01	3808.6	
5270	1731.06	3808.7	
5280	1731.1	3808.81	
5290	1731.15	3808.91	
5300	1731.19	3809.01	
5310	1731.24	3809.11	
5320	1731.28	3809.21	
5330	1731.33	3809.3	
5340	1731.37	3809.4	
5350	1731.41	3809.49	
5360	1731.46	3809.59	
5370	1731.5	3809.68	
5380	1731.54	3809.77	
5390	1731.58	3809.86	
5400	1731.62	3809.95	
5410	1731.66	3810.04	
5420	1731.7	3810.13	
5430	1731.74	3810.21	
5440	1731.78	3810.3	
5450	1731.82	3810.38	
5460	1731.86	3810.46	
5470	1731.89	3810.54	
5480	1731.93	3810.63	
5490	1731.97	3810.71	
5500	1732	3810.78	
5510	1732.04	3810.86	
5520	1732.07	3810.94	
5530	1732.11	3811.02	
5540	1732.14	3811.09	
5550	1732.17	3811.17	
5560	1732.21	3811.24	
5570	1732.24	3811.31	
5580	1732.27	3811.38	
5590	1732.31	3811.45	
5600	1732.34	3811.52	
5610	1732.37	3811.59	
5620	1732.4	3811.66	
5630	1732.43	3811.73	
5640	1732.46	3811.8	
5650	1732.49	3811.86	
5660	1732.52	3811.93	
5670	1732.55	3811.99	
5680	1732.58	3812.06	
5690	1732.61	3812.12	
5700	1732.64	3812.18	
5710	1732.66	3812.24	
5720	1732.69	3812.3	
5730	1732.72	3812.36	
5740	1732.75	3812.42	
5750	1732.77	3812.48	
5760	1732.8	3812.54	
5770	1732.83	3812.6	
5780	1732.85	3812.65	
5790	1732.88	3812.71	
5800	1732.9	3812.76	
5810	1732.93	3812.82	
5820	1732.95	3812.87	
5830	1732.97	3812.93	
5840	1733	3812.98	
5850	1733.02	3813.03	
5860	1733.05	3813.08	
5870	1733.07	3813.13	
5880	1733.09	3813.18	
5890	1733.11	3813.23	
5900	1733.14	3813.28	
5910	1733.16	3813.33	
5920	1733.18	3813.38	
5930	1733.2	3813.42	
5940	1733.22	3813.47	
5950	1733.24	3813.52	
5960	1733.26	3813.56	
5970	1733.28	3813.61	
5980	1733.3	3813.65	
5990	1733.32	3813.7	
6000	1733.34	3813.74	
6010	1733.36	3813.78	
6020	1733.38	3813.82	
6030	1733.4	3813.87	
6040	1733.42	3813.91	
6050	1733.44	3813.95	
6060	1733.46	3813.99	
6070	1733.48	3814.03	
6080	1733.49	3814.07	
6090	1733.51	3814.11	
6100	1733.53	3814.15	
6110	1733.55	3814.18	
6120	1733.56	3814.22	
6130	1733.58	3814.26	
6140	1733.6	3814.29	
6150	1733.61	3814.33	
6160	1733.63	3814.37	
6170	1733.65	3814.4	
6180	1733.66	3814.44	
6190	1733.68	3814.47	
6200	1733.69	3814.51	
6210	1733.71	3814.54	
6220	1733.72	3814.57	
6230	1733.74	3814.61	
6240	1733.75	3814.64	
6250	1733.77	3814.67	
6260	1733.78	3814.7	
6270	1733.8	3814.73	
6280	1733.81	3814.76	
6290	1733.82	3814.79	
6300	1733.84	3814.83	
6310	1733.85	3814.86	
6320	1733.87	3814.88	
6330	1733.88	3814.91	
6340	1733.89	3814.94	
6350	1733.9	3814.97	
6360	1733.92	3815	
6370	1733.93	3815.03	
6380	1733.94	3815.05	
6390	1733.95	3815.08	
6400	1733.97	3815.11	
6410	1733.98	3815.13	
6420	1733.99	3815.16	
6430	1734	3815.19	
6440	1734.01	3815.21	
6450	1734.03	3815.24	
6460	1734.04	3815.26	
6470	1734.05	3815.29	
6480	1734.06	3815.31	
6490	1734.07	3815.34	
6500	1734.08	3815.36	
6510	1734.09	3815.38	
6520	1734.1	3815.41	
6530	1734.11	3815.43	
6540	1734.12	3815.45	
6550	1734.13	3815.47	
6560	1734.14	3815.5	
6570	1734.15	3815.52	
6580	1734.16	3815.54	
6590	1734.17	3815.56	
6600	1734.18	3815.58	
6610	1734.19	3815.6	
6620	1734.2	3815.62	
6630	1734.21	3815.64	
6640	1734.22	3815.66	
6650	1734.23	3815.68	
6660	1734.24	3815.7	
6670	1734.25	3815.72	
6680	1734.25	3815.74	
6690	1734.26	3815.76	
6700	1734.27	3815.78	
6710	1734.28	3815.8	
6720	1734.29	3815.82	
6730	1734.3	3815.83	
6740	1734.31	3815.85	
6750	1734.31	3815.87	
6760	1734.32	3815.89	
6770	1734.33	3815.9	
6780	1734.34	3815.92	
6790	1734.34	3815.94	
6800	1734.35	3815.96	
6810	1734.36	3815.97	
6820	1734.37	3815.99	
6830	1734.37	3816	
6840	1734.38	3816.02	
6850	1734.39	3816.04	
6860	1734.4	3816.05	
6870	1734.4	3816.07	
6880	1734.41	3816.08	
6890	1734.42	3816.1	
6900	1734.42	3816.11	
6910	1734.43	3816.13	
6920	1734.44	3816.14	
6930	1734.44	3816.15	
6940	1734.45	3816.17	
6950	1734.46	3816.18	
6960	1734.46	3816.2	
6970	1734.47	3816.21	
6980	1734.47	3816.22	
6990	1734.48	3816.24	
7000	1734.49	3816.25	
7010	1734.49	3816.26	
7020	1734.5	3816.28	
7030	1734.5	3816.29	
7040	1734.51	3816.3	
7050	1734.51	3816.31	
7060	1734.52	3816.32	
7070	1734.53	3816.34	
7080	1734.53	3816.35	
7090	1734.54	3816.36	
7100	1734.54	3816.37	
7110	1734.55	3816.38	
7120	1734.55	3816.39	
7130	1734.56	3816.41	
7140	1734.56	3816.42	
7150	1734.57	3816.43	
7160	1734.57	3816.44	
7170	1734.58	3816.45	
7180	1734.58	3816.46	
7190	1734.59	3816.47	
7200	1734.59	3816.48	
7210	1734.6	3816.49	
7220	1734.6	3816.5	
7230	1734.6	3816.51	
7240	1734.61	3816.52	
7250	1734.61	3816.53	
7260	1734.62	3816.54	
7270	1734.62	3816.55	
7280	1734.63	3816.56	
7290	1734.63	3816.57	
7300	1734.63	3816.58	
7310	1734.64	3816.59	
7320	1734.64	3816.59	
7330	1734.65	3816.6	
7340	1734.65	3816.61	
7350	1734.65	3816.62	
7360	1734.66	3816.63	
7370	1734.66	3816.64	
7380	1734.67	3816.65	
7390	1734.67	3816.65	
7400	1734.67	3816.66	
7410	1734.68	3816.67	
7420	1734.68	3816.68	
7430	1734.68	3816.69	
7440	1734.69	3816.69	
7450	1734.69	3816.7	
7460	1734.69	3816.71	
7470	1734.7	3816.72	
7480	1734.7	3816.72	
7490	1734.7	3816.73	
7500	1734.71	3816.74	
7510	1734.71	3816.74	
7520	1734.71	3816.75	
7530	1734.72	3816.76	
7540	1734.72	3816.77	
7550	1734.72	3816.77	
7560	1734.73	3816.78	
7570	1734.73	3816.79	
7580	1734.73	3816.79	
7590	1734.73	3816.8	
7600	1734.74	3816.81	
7610	1734.74	3816.81	
7620	1734.74	3816.82	
7630	1734.75	3816.82	
7640	1734.75	3816.83	
7650	1734.75	3816.84	
7660	1734.75	3816.84	
7670	1734.76	3816.85	
7680	1734.76	3816.85	
7690	1734.76	3816.86	
7700	1734.76	3816.86	
7710	1734.77	3816.87	
7720	1734.77	3816.88	
7730	1734.77	3816.88	
7740	1734.77	3816.89	
7750	1734.78	3816.89	
7760	1734.78	3816.9	
7770	1734.78	3816.9	
7780	1734.78	3816.91	
7790	1734.79	3816.91	
7800	1734.79	3816.92	
7810	1734.79	3816.92	
7820	1734.79	3816.93	
7830	1734.8	3816.93	
7840	1734.8	3816.94	
7850	1734.8	3816.94	
7860	1734.8	3816.95	
7870	1734.8	3816.95	
7880	1734.81	3816.96	
7890	1734.81	3816.96	
7900	1734.81	3816.96	
7910	1734.81	3816.97	
7920	1734.81	3816.97	
7930	1734.82	3816.98	
7940	1734.82	3816.98	
7950	1734.82	3816.99	
7960	1734.82	3816.99	
7970	1734.82	3816.99	
7980	1734.83	3817	
7990	1734.83	3817	
8000	1734.83	3817.01	
8010	1734.83	3817.01	
8020	1734.83	3817.01	
8030	1734.83	3817.02	
8040	1734.84	3817.02	
8050	1734.84	3817.02	
8060	1734.84	3817.03	
8070	1734.84	3817.03	
8080	1734.84	3817.04	
8090	1734.84	3817.04	
8100	1734.85	3817.04	
8110	1734.85	3817.05	
8120	1734.85	3817.05	
8130	1734.85	3817.05	
8140	1734.85	3817.06	
8150	1734.85	3817.06	
8160	1734.86	3817.06	
8170	1734.86	3817.07	
8180	1734.86	3817.07	
8190	1734.86	3817.07	
8200	1734.86	3817.08	
8210	1734.86	3817.08	
8220	1734.86	3817.08	
8230	1734.87	3817.08	
8240	1734.87	3817.09	
8250	1734.87	3817.09	
8260	1734.87	3817.09	
8270	1734.87	3817.1	
8280	1734.87	3817.1	
8290	1734.87	3817.1	
8300	1734.87	3817.1	
8310	1734.88	3817.11	
8320	1734.88	3817.11	
8330	1734.88	3817.11	
8340	1734.88	3817.12	
8350	1734.88	3817.12	
8360	1734.88	3817.12	
8370	1734.88	3817.12	
8380	1734.88	3817.13	
8390	1734.88	3817.13	
8400	1734.89	3817.13	
8410	1734.89	3817.13	
8420	1734.89	3817.14	
8430	1734.89	3817.14	
8440	1734.89	3817.14	
8450	1734.89	3817.14	
8460	1734.89	3817.14	
8470	1734.89	3817.15	
8480	1734.89	3817.15	
8490	1734.89	3817.15	
8500	1734.9	3817.15	
8510	1734.9	3817.16	
8520	1734.9	3817.16	
8530	1734.9	3817.16	
8540	1734.9	3817.16	
8550	1734.9	3817.16	
8560	1734.9	3817.17	
8570	1734.9	3817.17	
8580	1734.9	3817.17	
8590	1734.9	3817.17	
8600	1734.91	3817.17	
8610	1734.91	3817.18	
8620	1734.91	3817.18	
8630	1734.91	3817.18	
8640	1734.91	3817.18	
8650	1734.91	3817.18	
8660	1734.91	3817.18	
8670	1734.91	3817.19	
8680	1734.91	3817.19	
8690	1734.91	3817.19	
8700	1734.91	3817.19	
8710	1734.91	3817.19	
8720	1734.92	3817.19	
8730	1734.92	3817.2	
8740	1734.92	3817.2	
8750	1734.92	3817.2	
8760	1734.92	3817.2	
8770	1734.92	3817.2	
8780	1734.92	3817.2	
8790	1734.92	3817.21	
8800	1734.92	3817.21	
8810	1734.92	3817.21	
8820	1734.92	3817.21	
8830	1734.92	3817.21	
8840	1734.92	3817.21	
8850	1734.92	3817.21	
8860	1734.92	3817.22	
8870	1734.93	3817.22	
8880	1734.93	3817.22	
8890	1734.93	3817.22	
8900	1734.93	3817.22	
8910	1734.93	3817.22	
8920	1734.93	3817.22	
8930	1734.93	3817.22	
8940	1734.93	3817.23	
8950	1734.93	3817.23	
8960	1734.93	3817.23	
8970	1734.93	3817.23	
8980	1734.93	3817.23	
8990	1734.93	3817.23	
9000	1734.93	3817.23	
9010	1734.93	3817.23	
9020	1734.93	3817.24	
9030	1734.93	3817.24	
9040	1734.93	3817.24	
9050	1734.93	3817.24	
9060	1734.94	3817.24	
9070	1734.94	3817.24	
9080	1734.94	3817.24	
9090	1734.94	3817.24	
9100	1734.94	3817.24	
9110	1734.94	3817.24	
9120	1734.94	3817.25	
9130	1734.94	3817.25	
9140	1734.94	3817.25	
9150	1734.94	3817.25	
9160	1734.94	3817.25	
9170	1734.94	3817.25	
9180	1734.94	3817.25	
9190	1734.94	3817.25	
9200	1734.94	3817.25	
9210	1734.94	3817.25	
9220	1734.94	3817.26	
9230	1734.94	3817.26	
9240	1734.94	3817.26	
9250	1734.94	3817.26	
9260	1734.94	3817.26	
9270	1734.94	3817.26	
9280	1734.95	3817.26	
9290	1734.95	3817.26	
9300	1734.95	3817.26	
9310	1734.95	3817.26	
9320	1734.95	3817.26	
9330	1734.95	3817.26	
9340	1734.95	3817.27	
9350	1734.95	3817.27	
9360	1734.95	3817.27	
9370	1734.95	3817.27	
9380	1734.95	3817.27	
9390	1734.95	3817.27	
9400	1734.95	3817.27	
9410	1734.95	3817.27	
9420	1734.95	3817.27	
9430	1734.95	3817.27	
9440	1734.95	3817.27	
9450	1734.95	3817.27	
9460	1734.95	3817.27	
9470	1734.95	3817.28	
9480	1734.95	3817.28	
9490	1734.95	3817.28	
9500	1734.95	3817.28	
9510	1734.95	3817.28	
9520	1734.95	3817.28	
9530	1734.95	3817.28	
9540	1734.95	3817.28	
9550	1734.95	3817.28	
9560	1734.95	3817.28	
9570	1734.95	3817.28	
9580	1734.95	3817.28	
9590	1734.96	3817.28	
9600	1734.96	3817.28	
9610	1734.96	3817.28	
9620	1734.96	3817.28	
9630	1734.96	3817.29	
9640	1734.96	3817.29	
9650	1734.96	3817.29	
9660	1734.96	3817.29	
9670	1734.96	3817.29	
9680	1734.96	3817.29	
9690	1734.96	3817.29	
9700	1734.96	3817.29	
9710	1734.96	3817.29	
9720	1734.96	3817.29	
9730	1734.96	3817.29	
9740	1734.96	3817.29	
9750	1734.96	3817.29	
9760	1734.96	3817.29	
9770	1734.96	3817.29	
9780	1734.96	3817.29	
9790	1734.96	3817.29	
9800	1734.96	3817.29	
9810	1734.96	3817.29	
9820	1734.96	3817.3	
9830	1734.96	3817.3	
9840	1734.96	3817.3	
9850	1734.96	3817.3	
9860	1734.96	3817.3	
9870	1734.96	3817.3	
9880	1734.96	3817.3	
9890	1734.96	3817.3	
9900	1734.96	3817.3	
9910	1734.96	3817.3	
9920	1734.96	3817.3	
9930	1734.96	3817.3	
9940	1734.96	3817.3	
9950	1734.96	3817.3	
9960	1734.96	3817.3	
9970	1734.96	3817.3	
9980	1734.96	3817.3	
9990	1734.96	3817.3	
10000	1734.96	3817.3	
10010	1734.96	3817.3	
10020	1734.96	3817.3	
10030	1734.96	3817.3	
10040	1734.96	3817.3	
10050	1734.96	3817.3	
10060	1734.97	3817.3	
10070	1734.97	3817.31	
10080	1734.97	3817.31	
10090	1734.97	3817.31	
10100	1734.97	3817.31	
10110	1734.97	3817.31	
10120	1734.97	3817.31	
10130	1734.97	3817.31	
10140	1734.97	3817.31	
10150	1734.97	3817.31	
10160	1734.97	3817.31	
10170	1734.97	3817.31	
10180	1734.97	3817.31	
10190	1734.97	3817.31	
10200	1734.97	3817.31	
10210	1734.97	3817.31	
10220	1734.97	3817.31	
10230	1734.97	3817.31	
10240	1734.97	3817.31	
10250	1734.97	3817.31	
10260	1734.97	3817.31	
10270	1734.97	3817.31	
10280	1734.97	3817.31	
10290	1734.97	3817.31	
10300	1734.97	3817.31	
10310	1734.97	3817.31	
10320	1734.97	3817.31	
10330	1734.97	3817.31	
10340	1734.97	3817.31	
10350	1734.97	3817.31	
10360	1734.97	3817.31	
10370	1734.97	3817.31	
10380	1734.97	3817.31	
10390	1734.97	3817.31	
10400	1734.97	3817.31	
10410	1734.97	3817.31	
10420	1734.97	3817.31	
10430	1734.97	3817.31	
10440	1734.97	3817.31	
10450	1734.97	3817.32	
10460	1734.97	3817.32	
10470	1734.97	3817.32	
10480	1734.97	3817.32	
10490	1734.97	3817.32	
10500	1734.97	3817.32	
10510	1734.97	3817.32	
10520	1734.97	3817.32	
10530	1734.97	3817.32	
10540	1734.97	3817.32	
10550	1734.97	3817.32	
10560	1734.97	3817.32	
10570	1734.97	3817.32	
10580	1734.97	3817.32	
10590	1734.97	3817.32	
10600	1734.97	3817.32	
10610	1734.97	3817.32	
10620	1734.97	3817.32	
10630	1734.97	3817.32	
10640	1734.97	3817.32	
10650	1734.97	3817.32	
10660	1734.97	3817.32	
10670	1734.97	3817.32	
10680	1734.97	3817.32	
10690	1734.97	3817.32	
10700	1734.97	3817.32	
10710	1734.97	3817.32	
10720	1734.97	3817.32	
10730	1734.97	3817.32	
10740	1734.97	3817.32	
10750	1734.97	3817.32	
10760	1734.97	3817.32	
10770	1734.97	3817.32	
10780	1734.97	3817.32	
10790	1734.97	3817.32	
10800	1734.97	3817.32	
10810	1734.97	3817.32	
10820	1734.97	3817.32	
10830	1734.97	3817.32	
10840	1734.97	3817.32	
10850	1734.97	3817.32	
10860	1734.97	3817.32	
10870	1734.97	3817.32	
10880	1734.97	3817.32	
10890	1734.97	3817.32	
10900	1734.97	3817.32	
10910	1734.97	3817.32	
10920	1734.97	3817.32	
10930	1734.97	3817.32	
10940	1734.97	3817.32	
10950	1734.97	3817.32	
10960	1734.97	3817.32	
10970	1734.97	3817.32	
10980	1734.97	3817.32	
10990	1734.97	3817.32	
11000	1734.97	3817.32	
11010	1734.97	3817.32	
11020	1734.97	3817.32	
11030	1734.97	3817.32	
11040	1734.97	3817.32	
11050	1734.97	3817.32	
11060	1734.97	3817.32	
11070	1734.97	3817.32	
11080	1734.97	3817.32	
11090	1734.97	3817.32	
11100	1734.97	3817.32	
11110	1734.97	3817.32	
11120	1734.97	3817.32	
11130	1734.97	3817.32	
11140	1734.97	3817.32	
11150	1734.97	3817.32	
11160	1734.97	3817.32	
11170	1734.97	3817.32	
11180	1734.97	3817.32	
11190	1734.97	3817.32	
11200	1734.97	3817.32	
11210	1734.97	3817.32	
11220	1734.97	3817.32	
11230	1734.97	3817.32	
11240	1734.97	3817.32	
11250	1734.97	3817.32	
11260	1734.97	3817.32	
11270	1734.97	3817.32	
11280	1734.97	3817.32	
11290	1734.97	3817.32	
11300	1734.97	3817.32	
11310	1734.97	3817.32	
11320	1734.97	3817.32	
11330	1734.97	3817.32	
11340	1734.97	3817.32	
11350	1734.97	3817.32	
11360	1734.97	3817.32	
11370	1734.97	3817.32	
11380	1734.97	3817.32	
11390	1734.97	3817.32	
11400	1734.97	3817.32	
11410	1734.97	3817.32	
11420	1734.97	3817.32	
11430	1734.97	3817.32	
11440	1734.97	3817.32	
11450	1734.97	3817.32	
11460	1734.97	3817.32	
11470	1734.97	3817.32	
11480	1734.97	3817.32	
11490	1734.97	3817.32	
11500	1734.97	3817.32	
11510	1734.97	3817.32	
11520	1734.97	3817.32	
11530	1734.97	3817.32	
11540	1734.97	3817.32	
11550	1734.97	3817.32	
11560	1734.97	3817.32	
11570	1734.97	3817.32	
11580	1734.97	3817.32	
11590	1734.97	3817.32	
11600	1734.97	3817.32	
11610	1734.97	3817.33	
11620	1734.97	3817.33	
11630	1734.97	3817.33	
11640	1734.97	3817.33	
11650	1734.97	3817.33	
11660	1734.97	3817.33	
11670	1734.97	3817.33	
11680	1734.97	3817.33	
11690	1734.97	3817.33	
11700	1734.97	3817.33	
11710	1734.97	3817.33	
11720	1734.97	3817.33	
11730	1734.97	3817.33	
11740	1734.97	3817.33	
11750	1734.97	3817.33	
11760	1734.97	3817.33	
11770	1734.97	3817.33	
11780	1734.97	3817.33	
11790	1734.97	3817.33	
11800	1734.97	3817.33	
11810	1734.97	3817.33	
11820	1734.97	3817.33	
11830	1734.97	3817.33	
11840	1734.97	3817.33	
11850	1734.97	3817.33	
11860	1734.97	3817.33	
11870	1734.97	3817.33	
11880	1734.97	3817.33	
11890	1734.97	3817.33	
11900	1734.97	3817.33	
11910	1734.97	3817.33	
11920	1734.97	3817.33	
11930	1734.97	3817.33	
11940	1734.97	3817.33	
11950	1734.97	3817.33	
11960	1734.97	3817.33	
11970	1734.97	3817.33	
11980	1734.97	3817.33	
11990	1734.97	3817.33	
12000	1734.97	3817.33	
12010	1734.97	3817.33	
12020	1734.97	3817.33	
12030	1734.97	3817.33	
12040	1734.97	3817.33	
12050	1734.97	3817.33	
12060	1734.97	3817.33	
12070	1734.97	3817.33	
12080	1734.97	3817.33	
12090	1734.97	3817.33	
12100	1734.97	3817.33	
12110	1734.97	3817.33	
12120	1734.97	3817.33	
12130	1734.97	3817.33	
12140	1734.97	3817.33	
12150	1734.97	3817.33	
12160	1734.97	3817.33	
12170	1734.98	3817.33	
12180	1734.98	3817.33	
12190	1734.98	3817.33	
12200	1734.98	3817.33	
12210	1734.98	3817.33	
12220	1734.98	3817.33	
12230	1734.98	3817.33	
12240	1734.98	3817.33	
12250	1734.98	3817.33	
12260	1734.98	3817.33	
12270	1734.98	3817.33	
12280	1734.98	3817.33	
12290	1734.98	3817.33	
12300	1734.98	3817.33	
12310	1734.98	3817.33	
12320	1734.98	3817.33	
12330	1734.98	3817.33	
12340	1734.98	3817.33	
12350	1734.98	3817.33	
12360	1734.98	3817.33	
12370	1734.98	3817.33	
12380	1734.98	3817.33	
12390	1734.98	3817.33	
12400	1734.98	3817.33	
12410	1734.98	3817.33	
12420	1734.98	3817.33	
12430	1734.98	3817.33	
12440	1734.98	3817.33	
12450	1734.98	3817.33	
12460	1734.98	3817.33	
12470	1734.98	3817.33	
12480	1734.98	3817.33	
12490	1734.98	3817.33	
12500	1734.98	3817.33	
12510	1734.98	3817.33	
12520	1734.98	3817.33	
12530	1734.98	3817.33	
12540	1734.98	3817.33	
12550	1734.98	3817.33	
12560	1734.98	3817.33	
12570	1734.98	3817.33	
12580	1734.98	3817.33	
12590	1734.98	3817.33	
12600	1734.98	3817.33	
12610	1734.98	3817.33	
12620	1734.98	3817.33	
12630	1734.98	3817.33	
12640	1734.98	3817.33	
12650	1734.98	3817.33	
12660	1734.98	3817.33	
12670	1734.98	3817.33	
12680	1734.98	3817.33	
12690	1734.98	3817.33	
12700	1734.98	3817.33	
12710	1734.98	3817.33	
12720	1734.98	3817.33	
12730	1734.98	3817.33	
12740	1734.98	3817.33	
12750	1734.98	3817.33	
12760	1734.98	3817.33	
12770	1734.98	3817.33	
12780	1734.98	3817.33	
12790	1734.98	3817.33	
12800	1734.98	3817.33	
